<svg xmlns="http://www.w3.org/2000/svg" xmlns:xlink="http://www.w3.org/1999/xlink" preserveAspectRatio="xMidYMid" width="149" height="51" viewBox="0 0 149 51">
  <defs>
    <style>
      .cls-1, .cls-3 {
        font-size: 120px;
      }

      .cls-2, .cls-3 {
        fill: #fff;
      }

      .cls-2 {
        font-size: 24px;
        font-family: "Gotham-Bold";
        font-weight: bold;
      }

      .cls-3 {
        font-family: "Maestro Custom";
      }
    </style>
  </defs>
  <text transform="scale(0.5)" class="cls-1"><tspan class="cls-2">Find us online.</tspan><tspan dy="0.7em" x="0" class="cls-3">mQW&apos;</tspan></text>
</svg>
