<svg xmlns="http://www.w3.org/2000/svg" xmlns:xlink="http://www.w3.org/1999/xlink" preserveAspectRatio="xMidYMid" width="17" height="29" viewBox="0 0 17 29">
  <defs>
    <style>
      .cls-1 {
        fill: #fff;
        fill-rule: evenodd;
      }
    </style>
  </defs>
  <path d="M14.000,29.001 L3.000,29.001 C1.343,29.001 0.000,27.658 0.000,26.001 L0.000,3.001 C0.000,1.344 1.343,0.000 3.000,0.000 L14.000,0.000 C15.657,0.000 17.000,1.344 17.000,3.001 L17.000,26.001 C17.000,27.658 15.657,29.001 14.000,29.001 ZM7.000,27.001 L10.000,27.001 L10.000,25.001 L7.000,25.001 L7.000,27.001 ZM7.000,24.001 L10.000,24.001 L10.000,22.001 L7.000,22.001 L7.000,24.001 ZM7.000,21.000 L10.000,21.000 L10.000,19.001 L7.000,19.001 L7.000,21.000 ZM7.000,18.001 L10.000,18.001 L10.000,16.001 L7.000,16.001 L7.000,18.001 ZM2.000,27.001 L5.000,27.001 L5.000,25.001 L2.000,25.001 L2.000,27.001 ZM2.000,24.001 L5.000,24.001 L5.000,22.001 L2.000,22.001 L2.000,24.001 ZM2.000,21.000 L5.000,21.000 L5.000,19.001 L2.000,19.001 L2.000,21.000 ZM2.000,18.001 L5.000,18.001 L5.000,16.001 L2.000,16.001 L2.000,18.001 ZM15.000,3.001 C15.000,2.448 14.552,2.001 14.000,2.001 L3.000,2.001 C2.448,2.001 2.000,2.448 2.000,3.001 L2.000,13.001 C2.000,13.553 2.448,14.001 3.000,14.001 L14.000,14.001 C14.552,14.001 15.000,13.553 15.000,13.001 L15.000,3.001 ZM15.000,16.001 L12.000,16.001 L12.000,18.001 L15.000,18.001 L15.000,16.001 ZM15.000,19.001 L12.000,19.001 L12.000,21.000 L15.000,21.000 L15.000,19.001 ZM15.000,22.001 L12.000,22.001 L12.000,24.001 L15.000,24.001 L15.000,22.001 ZM15.000,25.001 L12.000,25.001 L12.000,27.001 L15.000,27.001 L15.000,25.001 Z" class="cls-1"/>
</svg>
